^C:\USERS\MAGSHIMIM\SOURCE\REPOS\PROJECT21\PROJECT1\HELPER.CPP|C:\USERS\MAGSHIMIM\SOURCE\REPOS\PROJECT21\PROJECT1\MAIN.CPP|C:\USERS\MAGSHIMIM\SOURCE\REPOS\PROJECT21\PROJECT1\MANAGER.CPP|C:\USERS\MAGSHIMIM\SOURCE\REPOS\PROJECT21\PROJECT1\SERVER.CPP|C:\USERS\MAGSHIMIM\SOURCE\REPOS\PROJECT21\PROJECT1\WSAINITIALIZER.CPP
C:\USERS\MAGSHIMIM\SOURCE\REPOS\PROJECT21\PROJECT1\DEBUG\VC141.PDB
C:\USERS\MAGSHIMIM\SOURCE\REPOS\PROJECT21\PROJECT1\DEBUG\VC141.IDB
C:\USERS\MAGSHIMIM\SOURCE\REPOS\PROJECT21\PROJECT1\DEBUG\WSAINITIALIZER.OBJ
C:\USERS\MAGSHIMIM\SOURCE\REPOS\PROJECT21\PROJECT1\DEBUG\MANAGER.OBJ
C:\USERS\MAGSHIMIM\SOURCE\REPOS\PROJECT21\PROJECT1\DEBUG\MAIN.OBJ
C:\USERS\MAGSHIMIM\SOURCE\REPOS\PROJECT21\PROJECT1\DEBUG\HELPER.OBJ
^C:\USERS\MAGSHIMIM\SOURCE\REPOS\PROJECT21\PROJECT1\WSAINITIALIZER.CPP
C:\USERS\MAGSHIMIM\SOURCE\REPOS\PROJECT21\PROJECT1\DEBUG\WSAINITIALIZER.OBJ
^C:\USERS\MAGSHIMIM\SOURCE\REPOS\PROJECT21\PROJECT1\CLIENT.CPP|C:\USERS\MAGSHIMIM\SOURCE\REPOS\PROJECT21\PROJECT1\HELPER.CPP|C:\USERS\MAGSHIMIM\SOURCE\REPOS\PROJECT21\PROJECT1\MAIN.CPP|C:\USERS\MAGSHIMIM\SOURCE\REPOS\PROJECT21\PROJECT1\MSG.CPP|C:\USERS\MAGSHIMIM\SOURCE\REPOS\PROJECT21\PROJECT1\SERVER.CPP
C:\USERS\MAGSHIMIM\SOURCE\REPOS\PROJECT21\PROJECT1\DEBUG\VC141.PDB
C:\USERS\MAGSHIMIM\SOURCE\REPOS\PROJECT21\PROJECT1\DEBUG\VC141.IDB
C:\USERS\MAGSHIMIM\SOURCE\REPOS\PROJECT21\PROJECT1\DEBUG\MSG.OBJ
C:\USERS\MAGSHIMIM\SOURCE\REPOS\PROJECT21\PROJECT1\DEBUG\MAIN.OBJ
C:\USERS\MAGSHIMIM\SOURCE\REPOS\PROJECT21\PROJECT1\DEBUG\HELPER.OBJ
C:\USERS\MAGSHIMIM\SOURCE\REPOS\PROJECT21\PROJECT1\DEBUG\CLIENT.OBJ
^C:\USERS\MAGSHIMIM\SOURCE\REPOS\PROJECT21\PROJECT1\HELPER.CPP
C:\USERS\MAGSHIMIM\SOURCE\REPOS\PROJECT21\PROJECT1\DEBUG\HELPER.OBJ
^C:\USERS\MAGSHIMIM\SOURCE\REPOS\PROJECT21\PROJECT1\CLIENT.CPP|C:\USERS\MAGSHIMIM\SOURCE\REPOS\PROJECT21\PROJECT1\MAIN.CPP|C:\USERS\MAGSHIMIM\SOURCE\REPOS\PROJECT21\PROJECT1\MSG.CPP|C:\USERS\MAGSHIMIM\SOURCE\REPOS\PROJECT21\PROJECT1\SERVER.CPP
C:\USERS\MAGSHIMIM\SOURCE\REPOS\PROJECT21\PROJECT1\DEBUG\VC141.PDB
C:\USERS\MAGSHIMIM\SOURCE\REPOS\PROJECT21\PROJECT1\DEBUG\VC141.IDB
C:\USERS\MAGSHIMIM\SOURCE\REPOS\PROJECT21\PROJECT1\DEBUG\MAIN.OBJ
C:\USERS\MAGSHIMIM\SOURCE\REPOS\PROJECT21\PROJECT1\DEBUG\MSG.OBJ
C:\USERS\MAGSHIMIM\SOURCE\REPOS\PROJECT21\PROJECT1\DEBUG\CLIENT.OBJ
^C:\USERS\MAGSHIMIM\SOURCE\REPOS\PROJECT21\PROJECT1\CLIENT.CPP
C:\USERS\MAGSHIMIM\SOURCE\REPOS\PROJECT21\PROJECT1\DEBUG\CLIENT.OBJ
^C:\USERS\MAGSHIMIM\SOURCE\REPOS\PROJECT21\PROJECT1\MSG.CPP
C:\USERS\MAGSHIMIM\SOURCE\REPOS\PROJECT21\PROJECT1\DEBUG\MSG.OBJ
^C:\USERS\MAGSHIMIM\SOURCE\REPOS\PROJECT21\PROJECT1\MAIN.CPP|C:\USERS\MAGSHIMIM\SOURCE\REPOS\PROJECT21\PROJECT1\SERVER.CPP
C:\USERS\MAGSHIMIM\SOURCE\REPOS\PROJECT21\PROJECT1\DEBUG\VC141.PDB
C:\USERS\MAGSHIMIM\SOURCE\REPOS\PROJECT21\PROJECT1\DEBUG\VC141.IDB
C:\USERS\MAGSHIMIM\SOURCE\REPOS\PROJECT21\PROJECT1\DEBUG\SERVER.OBJ
C:\USERS\MAGSHIMIM\SOURCE\REPOS\PROJECT21\PROJECT1\DEBUG\MAIN.OBJ
^C:\USERS\MAGSHIMIM\SOURCE\REPOS\PROJECT21\PROJECT1\MAIN.CPP
C:\USERS\MAGSHIMIM\SOURCE\REPOS\PROJECT21\PROJECT1\DEBUG\VC141.PDB
^C:\USERS\MAGSHIMIM\SOURCE\REPOS\PROJECT21\PROJECT1\SERVER.CPP
C:\USERS\MAGSHIMIM\SOURCE\REPOS\PROJECT21\PROJECT1\DEBUG\VC141.PDB
C:\USERS\MAGSHIMIM\SOURCE\REPOS\PROJECT21\PROJECT1\DEBUG\VC141.IDB
C:\USERS\MAGSHIMIM\SOURCE\REPOS\PROJECT21\PROJECT1\DEBUG\SERVER.OBJ
